lab3_2/lab3_2.sim/sim_1/behav/xsim/simulate.log
Time resolution is 1 ps
[2000] counter=1 clk_i=1 rst_i=0 TXD_o = x
[4000] counter=2 clk_i=0 rst_i=0 TXD_o = x
[6000] counter=3 clk_i=1 rst_i=0 TXD_o = x
[8000] counter=4 clk_i=0 rst_i=0 TXD_o = x
[10000] counter=5 clk_i=1 rst_i=0 TXD_o = x
[12000] counter=6 clk_i=0 rst_i=0 TXD_o = x
[14000] counter=7 clk_i=1 rst_i=0 TXD_o = x
[16000] counter=8 clk_i=0 rst_i=0 TXD_o = x
[18000] counter=9 clk_i=1 rst_i=0 TXD_o = x
[20000] counter=10 clk_i=0 rst_i=0 TXD_o = x
[22000] counter=11 clk_i=1 rst_i=0 TXD_o = x
[24000] counter=12 clk_i=0 rst_i=0 TXD_o = x
[26000] counter=13 clk_i=1 rst_i=0 TXD_o = x
[28000] counter=14 clk_i=0 rst_i=0 TXD_o = x
[30000] counter=15 clk_i=1 rst_i=0 TXD_o = x
[32000] counter=16 clk_i=0 rst_i=0 TXD_o = x
[34000] counter=17 clk_i=1 rst_i=0 TXD_o = x
[36000] counter=18 clk_i=0 rst_i=0 TXD_o = x
[38000] counter=19 clk_i=1 rst_i=0 TXD_o = x
[40000] counter=20 clk_i=0 rst_i=0 TXD_o = x
[42000] counter=21 clk_i=1 rst_i=0 TXD_o = x
[44000] counter=22 clk_i=0 rst_i=0 TXD_o = x
[46000] counter=23 clk_i=1 rst_i=0 TXD_o = x
[48000] counter=24 clk_i=0 rst_i=0 TXD_o = x
[50000] counter=25 clk_i=1 rst_i=0 TXD_o = x
[52000] counter=26 clk_i=0 rst_i=0 TXD_o = x
[54000] counter=27 clk_i=1 rst_i=0 TXD_o = x
[56000] counter=28 clk_i=0 rst_i=0 TXD_o = x
[58000] counter=29 clk_i=1 rst_i=0 TXD_o = x
[60000] counter=30 clk_i=0 rst_i=0 TXD_o = x
[62000] counter=31 clk_i=1 rst_i=0 TXD_o = x
[64000] counter=32 clk_i=0 rst_i=0 TXD_o = x
[66000] counter=33 clk_i=1 rst_i=0 TXD_o = x
[68000] counter=34 clk_i=0 rst_i=0 TXD_o = x
[70000] counter=35 clk_i=1 rst_i=0 TXD_o = x
[72000] counter=36 clk_i=0 rst_i=0 TXD_o = x
[74000] counter=37 clk_i=1 rst_i=0 TXD_o = x
[76000] counter=38 clk_i=0 rst_i=0 TXD_o = x
[78000] counter=39 clk_i=1 rst_i=0 TXD_o = x
[80000] counter=40 clk_i=0 rst_i=0 TXD_o = x
[82000] counter=41 clk_i=1 rst_i=0 TXD_o = x
[84000] counter=42 clk_i=0 rst_i=0 TXD_o = x
[86000] counter=43 clk_i=1 rst_i=0 TXD_o = x
[88000] counter=44 clk_i=0 rst_i=0 TXD_o = x
[90000] counter=45 clk_i=1 rst_i=0 TXD_o = x
[92000] counter=46 clk_i=0 rst_i=0 TXD_o = x
[94000] counter=47 clk_i=1 rst_i=0 TXD_o = x
[96000] counter=48 clk_i=0 rst_i=0 TXD_o = x
[98000] counter=49 clk_i=1 rst_i=0 TXD_o = x
[100000] counter=50 clk_i=0 rst_i=0 TXD_o = x
[102000] counter=51 clk_i=1 rst_i=0 TXD_o = x
[104000] counter=52 clk_i=0 rst_i=0 TXD_o = x
[106000] counter=53 clk_i=1 rst_i=0 TXD_o = x
[108000] counter=54 clk_i=0 rst_i=0 TXD_o = x
[110000] counter=55 clk_i=1 rst_i=0 TXD_o = x
[112000] counter=56 clk_i=0 rst_i=0 TXD_o = x
[114000] counter=57 clk_i=1 rst_i=0 TXD_o = x
[116000] counter=58 clk_i=0 rst_i=0 TXD_o = x
[118000] counter=59 clk_i=1 rst_i=0 TXD_o = x
[120000] counter=60 clk_i=0 rst_i=0 TXD_o = x
[122000] counter=61 clk_i=1 rst_i=0 TXD_o = x
[124000] counter=62 clk_i=0 rst_i=0 TXD_o = x
[126000] counter=63 clk_i=1 rst_i=0 TXD_o = x
[128000] counter=64 clk_i=0 rst_i=0 TXD_o = x
[130000] counter=65 clk_i=1 rst_i=0 TXD_o = x
[132000] counter=66 clk_i=0 rst_i=0 TXD_o = x
[134000] counter=67 clk_i=1 rst_i=0 TXD_o = x
[136000] counter=68 clk_i=0 rst_i=0 TXD_o = x
[138000] counter=69 clk_i=1 rst_i=0 TXD_o = x
[140000] counter=70 clk_i=0 rst_i=0 TXD_o = x
[142000] counter=71 clk_i=1 rst_i=0 TXD_o = x
[144000] counter=72 clk_i=0 rst_i=0 TXD_o = x
[146000] counter=73 clk_i=1 rst_i=0 TXD_o = x
[148000] counter=74 clk_i=0 rst_i=0 TXD_o = x
[150000] counter=75 clk_i=1 rst_i=0 TXD_o = x
[152000] counter=76 clk_i=0 rst_i=0 TXD_o = x
[154000] counter=77 clk_i=1 rst_i=0 TXD_o = x
[156000] counter=78 clk_i=0 rst_i=0 TXD_o = x
[158000] counter=79 clk_i=1 rst_i=0 TXD_o = x
[160000] counter=80 clk_i=0 rst_i=0 TXD_o = x
[162000] counter=81 clk_i=1 rst_i=0 TXD_o = x
[164000] counter=82 clk_i=0 rst_i=0 TXD_o = x
[166000] counter=83 clk_i=1 rst_i=0 TXD_o = x
[168000] counter=84 clk_i=0 rst_i=0 TXD_o = x
[170000] counter=85 clk_i=1 rst_i=0 TXD_o = x
[172000] counter=86 clk_i=0 rst_i=0 TXD_o = x
[174000] counter=87 clk_i=1 rst_i=0 TXD_o = x
[176000] counter=88 clk_i=0 rst_i=0 TXD_o = x
[178000] counter=89 clk_i=1 rst_i=0 TXD_o = x
[180000] counter=90 clk_i=0 rst_i=0 TXD_o = x
[182000] counter=91 clk_i=1 rst_i=0 TXD_o = x
[184000] counter=92 clk_i=0 rst_i=0 TXD_o = x
[186000] counter=93 clk_i=1 rst_i=0 TXD_o = x
[188000] counter=94 clk_i=0 rst_i=0 TXD_o = x
[190000] counter=95 clk_i=1 rst_i=0 TXD_o = x
[192000] counter=96 clk_i=0 rst_i=0 TXD_o = x
[194000] counter=97 clk_i=1 rst_i=0 TXD_o = x
[196000] counter=98 clk_i=0 rst_i=0 TXD_o = x
[198000] counter=99 clk_i=1 rst_i=0 TXD_o = x
[200000] counter=100 clk_i=0 rst_i=0 TXD_o = x
[202000] counter=101 clk_i=1 rst_i=0 TXD_o = 0
[204000] counter=102 clk_i=0 rst_i=0 TXD_o = 0
[206000] counter=103 clk_i=1 rst_i=0 TXD_o = 0
[208000] counter=104 clk_i=0 rst_i=0 TXD_o = 0
[210000] counter=105 clk_i=1 rst_i=0 TXD_o = 0
[212000] counter=106 clk_i=0 rst_i=0 TXD_o = 0
[214000] counter=107 clk_i=1 rst_i=0 TXD_o = 0
[216000] counter=108 clk_i=0 rst_i=0 TXD_o = 0
[218000] counter=109 clk_i=1 rst_i=0 TXD_o = 0
[220000] counter=110 clk_i=0 rst_i=0 TXD_o = 0
[222000] counter=111 clk_i=1 rst_i=0 TXD_o = 1
[224000] counter=112 clk_i=0 rst_i=0 TXD_o = 1
[226000] counter=113 clk_i=1 rst_i=0 TXD_o = 1
[228000] counter=114 clk_i=0 rst_i=0 TXD_o = 1
[230000] counter=115 clk_i=1 rst_i=0 TXD_o = 1
[232000] counter=116 clk_i=0 rst_i=0 TXD_o = 1
[234000] counter=117 clk_i=1 rst_i=0 TXD_o = 1
[236000] counter=118 clk_i=0 rst_i=0 TXD_o = 1
[238000] counter=119 clk_i=1 rst_i=0 TXD_o = 1
[240000] counter=120 clk_i=0 rst_i=0 TXD_o = 1
[242000] counter=121 clk_i=1 rst_i=0 TXD_o = 0
[244000] counter=122 clk_i=0 rst_i=0 TXD_o = 0
[246000] counter=123 clk_i=1 rst_i=0 TXD_o = 0
[248000] counter=124 clk_i=0 rst_i=0 TXD_o = 0
[250000] counter=125 clk_i=1 rst_i=0 TXD_o = 0
[252000] counter=126 clk_i=0 rst_i=0 TXD_o = 0
[254000] counter=127 clk_i=1 rst_i=0 TXD_o = 0
[256000] counter=128 clk_i=0 rst_i=0 TXD_o = 0
[258000] counter=129 clk_i=1 rst_i=0 TXD_o = 0
[260000] counter=130 clk_i=0 rst_i=0 TXD_o = 0
[262000] counter=131 clk_i=1 rst_i=0 TXD_o = 0
[264000] counter=132 clk_i=0 rst_i=0 TXD_o = 0
[266000] counter=133 clk_i=1 rst_i=0 TXD_o = 0
[268000] counter=134 clk_i=0 rst_i=0 TXD_o = 0
[270000] counter=135 clk_i=1 rst_i=0 TXD_o = 0
[272000] counter=136 clk_i=0 rst_i=0 TXD_o = 0
[274000] counter=137 clk_i=1 rst_i=0 TXD_o = 0
[276000] counter=138 clk_i=0 rst_i=0 TXD_o = 0
[278000] counter=139 clk_i=1 rst_i=0 TXD_o = 0
[280000] counter=140 clk_i=0 rst_i=0 TXD_o = 0
[282000] counter=141 clk_i=1 rst_i=0 TXD_o = 1
[284000] counter=142 clk_i=0 rst_i=0 TXD_o = 1
[286000] counter=143 clk_i=1 rst_i=0 TXD_o = 1
[288000] counter=144 clk_i=0 rst_i=0 TXD_o = 1
[290000] counter=145 clk_i=1 rst_i=0 TXD_o = 1
[292000] counter=146 clk_i=0 rst_i=0 TXD_o = 1
[294000] counter=147 clk_i=1 rst_i=0 TXD_o = 1
[296000] counter=148 clk_i=0 rst_i=0 TXD_o = 1
[298000] counter=149 clk_i=1 rst_i=0 TXD_o = 1
[300000] counter=150 clk_i=0 rst_i=0 TXD_o = 1
[302000] counter=151 clk_i=1 rst_i=0 TXD_o = 1
[304000] counter=152 clk_i=0 rst_i=0 TXD_o = 1
[306000] counter=153 clk_i=1 rst_i=0 TXD_o = 1
[308000] counter=154 clk_i=0 rst_i=0 TXD_o = 1
[310000] counter=155 clk_i=1 rst_i=0 TXD_o = 1
[312000] counter=156 clk_i=0 rst_i=0 TXD_o = 1
[314000] counter=157 clk_i=1 rst_i=0 TXD_o = 1
[316000] counter=158 clk_i=0 rst_i=0 TXD_o = 1
[318000] counter=159 clk_i=1 rst_i=0 TXD_o = 1
[320000] counter=160 clk_i=0 rst_i=0 TXD_o = 1
[322000] counter=161 clk_i=1 rst_i=0 TXD_o = 1
[324000] counter=162 clk_i=0 rst_i=0 TXD_o = 1
[326000] counter=163 clk_i=1 rst_i=0 TXD_o = 1
[328000] counter=164 clk_i=0 rst_i=0 TXD_o = 1
[330000] counter=165 clk_i=1 rst_i=0 TXD_o = 1
[332000] counter=166 clk_i=0 rst_i=0 TXD_o = 1
[334000] counter=167 clk_i=1 rst_i=0 TXD_o = 1
[336000] counter=168 clk_i=0 rst_i=0 TXD_o = 1
[338000] counter=169 clk_i=1 rst_i=0 TXD_o = 1
[340000] counter=170 clk_i=0 rst_i=0 TXD_o = 1
[342000] counter=171 clk_i=1 rst_i=0 TXD_o = 0
[344000] counter=172 clk_i=0 rst_i=0 TXD_o = 0
[346000] counter=173 clk_i=1 rst_i=0 TXD_o = 0
[348000] counter=174 clk_i=0 rst_i=0 TXD_o = 0
[350000] counter=175 clk_i=1 rst_i=0 TXD_o = 0
[352000] counter=176 clk_i=0 rst_i=0 TXD_o = 0
[354000] counter=177 clk_i=1 rst_i=0 TXD_o = 0
[356000] counter=178 clk_i=0 rst_i=0 TXD_o = 0
[358000] counter=179 clk_i=1 rst_i=0 TXD_o = 0
[360000] counter=180 clk_i=0 rst_i=0 TXD_o = 0
[362000] counter=181 clk_i=1 rst_i=0 TXD_o = 0
[364000] counter=182 clk_i=0 rst_i=0 TXD_o = 0
[366000] counter=183 clk_i=1 rst_i=0 TXD_o = 0
[368000] counter=184 clk_i=0 rst_i=0 TXD_o = 0
[370000] counter=185 clk_i=1 rst_i=0 TXD_o = 0
[372000] counter=186 clk_i=0 rst_i=0 TXD_o = 0
[374000] counter=187 clk_i=1 rst_i=0 TXD_o = 0
[376000] counter=188 clk_i=0 rst_i=0 TXD_o = 0
[378000] counter=189 clk_i=1 rst_i=0 TXD_o = 0
[380000] counter=190 clk_i=0 rst_i=0 TXD_o = 0
[382000] counter=191 clk_i=1 rst_i=0 TXD_o = 1
[384000] counter=192 clk_i=0 rst_i=0 TXD_o = 1
[386000] counter=193 clk_i=1 rst_i=0 TXD_o = 1
[388000] counter=194 clk_i=0 rst_i=0 TXD_o = 1
[390000] counter=195 clk_i=1 rst_i=0 TXD_o = 1
[392000] counter=196 clk_i=0 rst_i=0 TXD_o = 1
[394000] counter=197 clk_i=1 rst_i=0 TXD_o = 1
[396000] counter=198 clk_i=0 rst_i=0 TXD_o = 1
[398000] counter=199 clk_i=1 rst_i=0 TXD_o = 1
[400000] counter=200 clk_i=0 rst_i=0 TXD_o = 1
[402000] counter=201 clk_i=1 rst_i=0 TXD_o = 1
[404000] counter=202 clk_i=0 rst_i=0 TXD_o = 1
[406000] counter=203 clk_i=1 rst_i=0 TXD_o = 1
[408000] counter=204 clk_i=0 rst_i=0 TXD_o = 1
[410000] counter=205 clk_i=1 rst_i=0 TXD_o = 1
[412000] counter=206 clk_i=0 rst_i=0 TXD_o = 1
[414000] counter=207 clk_i=1 rst_i=0 TXD_o = 1
[416000] counter=208 clk_i=0 rst_i=0 TXD_o = 1
[418000] counter=209 clk_i=1 rst_i=0 TXD_o = 1
[420000] counter=210 clk_i=0 rst_i=0 TXD_o = 1
[422000] counter=211 clk_i=1 rst_i=0 TXD_o = 1
[424000] counter=212 clk_i=0 rst_i=0 TXD_o = 1
[426000] counter=213 clk_i=1 rst_i=0 TXD_o = 1
[428000] counter=214 clk_i=0 rst_i=0 TXD_o = 1
[430000] counter=215 clk_i=1 rst_i=0 TXD_o = 1
[432000] counter=216 clk_i=0 rst_i=0 TXD_o = 1
[434000] counter=217 clk_i=1 rst_i=0 TXD_o = 1
[436000] counter=218 clk_i=0 rst_i=0 TXD_o = 1
[438000] counter=219 clk_i=1 rst_i=0 TXD_o = 1
[440000] counter=220 clk_i=0 rst_i=0 TXD_o = 1
[442000] counter=221 clk_i=1 rst_i=0 TXD_o = 1
[444000] counter=222 clk_i=0 rst_i=0 TXD_o = 1
[446000] counter=223 clk_i=1 rst_i=0 TXD_o = 1
[448000] counter=224 clk_i=0 rst_i=0 TXD_o = 1
[450000] counter=225 clk_i=1 rst_i=0 TXD_o = 1
[452000] counter=226 clk_i=0 rst_i=0 TXD_o = 1
[454000] counter=227 clk_i=1 rst_i=0 TXD_o = 1
[456000] counter=228 clk_i=0 rst_i=0 TXD_o = 1
[458000] counter=229 clk_i=1 rst_i=0 TXD_o = 1
[460000] counter=230 clk_i=0 rst_i=0 TXD_o = 1
[462000] counter=231 clk_i=1 rst_i=0 TXD_o = 1
[464000] counter=232 clk_i=0 rst_i=0 TXD_o = 1
[466000] counter=233 clk_i=1 rst_i=0 TXD_o = 1
[468000] counter=234 clk_i=0 rst_i=0 TXD_o = 1
[470000] counter=235 clk_i=1 rst_i=0 TXD_o = 1
[472000] counter=236 clk_i=0 rst_i=0 TXD_o = 1
[474000] counter=237 clk_i=1 rst_i=0 TXD_o = 1
[476000] counter=238 clk_i=0 rst_i=0 TXD_o = 1
[478000] counter=239 clk_i=1 rst_i=0 TXD_o = 1
[480000] counter=240 clk_i=0 rst_i=0 TXD_o = 1
[482000] counter=241 clk_i=1 rst_i=0 TXD_o = 1
[484000] counter=242 clk_i=0 rst_i=0 TXD_o = 1
[486000] counter=243 clk_i=1 rst_i=0 TXD_o = 1
[488000] counter=244 clk_i=0 rst_i=0 TXD_o = 1
[490000] counter=245 clk_i=1 rst_i=0 TXD_o = 1
[492000] counter=246 clk_i=0 rst_i=0 TXD_o = 1
[494000] counter=247 clk_i=1 rst_i=0 TXD_o = 1
[496000] counter=248 clk_i=0 rst_i=0 TXD_o = 1
[498000] counter=249 clk_i=1 rst_i=0 TXD_o = 1
[500000] counter=250 clk_i=0 rst_i=0 TXD_o = 1
[502000] counter=251 clk_i=1 rst_i=0 TXD_o = 1
[504000] counter=252 clk_i=0 rst_i=0 TXD_o = 1
[506000] counter=253 clk_i=1 rst_i=0 TXD_o = 1
[508000] counter=254 clk_i=0 rst_i=0 TXD_o = 1
[510000] counter=255 clk_i=1 rst_i=0 TXD_o = 1
[512000] counter=256 clk_i=0 rst_i=0 TXD_o = 1
[514000] counter=257 clk_i=1 rst_i=0 TXD_o = 1
[516000] counter=258 clk_i=0 rst_i=0 TXD_o = 1
[518000] counter=259 clk_i=1 rst_i=0 TXD_o = 1
[520000] counter=260 clk_i=0 rst_i=0 TXD_o = 1
[522000] counter=261 clk_i=1 rst_i=0 TXD_o = 1
[524000] counter=262 clk_i=0 rst_i=0 TXD_o = 1
[526000] counter=263 clk_i=1 rst_i=0 TXD_o = 1
[528000] counter=264 clk_i=0 rst_i=0 TXD_o = 1
[530000] counter=265 clk_i=1 rst_i=0 TXD_o = 1
[532000] counter=266 clk_i=0 rst_i=0 TXD_o = 1
[534000] counter=267 clk_i=1 rst_i=0 TXD_o = 1
[536000] counter=268 clk_i=0 rst_i=0 TXD_o = 1
[538000] counter=269 clk_i=1 rst_i=0 TXD_o = 1
[540000] counter=270 clk_i=0 rst_i=0 TXD_o = 1
[542000] counter=271 clk_i=1 rst_i=0 TXD_o = 1
[544000] counter=272 clk_i=0 rst_i=0 TXD_o = 1
[546000] counter=273 clk_i=1 rst_i=0 TXD_o = 1
[548000] counter=274 clk_i=0 rst_i=0 TXD_o = 1
[550000] counter=275 clk_i=1 rst_i=0 TXD_o = 1
[552000] counter=276 clk_i=0 rst_i=0 TXD_o = 1
[554000] counter=277 clk_i=1 rst_i=0 TXD_o = 1
[556000] counter=278 clk_i=0 rst_i=0 TXD_o = 1
[558000] counter=279 clk_i=1 rst_i=0 TXD_o = 1
[560000] counter=280 clk_i=0 rst_i=0 TXD_o = 1
[562000] counter=281 clk_i=1 rst_i=0 TXD_o = 1
[564000] counter=282 clk_i=0 rst_i=0 TXD_o = 1
[566000] counter=283 clk_i=1 rst_i=0 TXD_o = 1
[568000] counter=284 clk_i=0 rst_i=0 TXD_o = 1
[570000] counter=285 clk_i=1 rst_i=0 TXD_o = 1
[572000] counter=286 clk_i=0 rst_i=0 TXD_o = 1
[574000] counter=287 clk_i=1 rst_i=0 TXD_o = 1
[576000] counter=288 clk_i=0 rst_i=0 TXD_o = 1
[578000] counter=289 clk_i=1 rst_i=0 TXD_o = 1
[580000] counter=290 clk_i=0 rst_i=0 TXD_o = 1
[582000] counter=291 clk_i=1 rst_i=0 TXD_o = 1
[584000] counter=292 clk_i=0 rst_i=0 TXD_o = 1
[586000] counter=293 clk_i=1 rst_i=0 TXD_o = 1
[588000] counter=294 clk_i=0 rst_i=0 TXD_o = 1
[590000] counter=295 clk_i=1 rst_i=0 TXD_o = 1
[592000] counter=296 clk_i=0 rst_i=0 TXD_o = 1
[594000] counter=297 clk_i=1 rst_i=0 TXD_o = 1
[596000] counter=298 clk_i=0 rst_i=0 TXD_o = 1
[598000] counter=299 clk_i=1 rst_i=0 TXD_o = 1
[600000] counter=300 clk_i=0 rst_i=0 TXD_o = 1
[602000] counter=301 clk_i=1 rst_i=0 TXD_o = 1
[604000] counter=302 clk_i=0 rst_i=0 TXD_o = 1
[606000] counter=303 clk_i=1 rst_i=0 TXD_o = 1
[608000] counter=304 clk_i=0 rst_i=0 TXD_o = 1
[610000] counter=305 clk_i=1 rst_i=0 TXD_o = 1
[612000] counter=306 clk_i=0 rst_i=0 TXD_o = 1
[614000] counter=307 clk_i=1 rst_i=0 TXD_o = 1
[616000] counter=308 clk_i=0 rst_i=0 TXD_o = 1
[618000] counter=309 clk_i=1 rst_i=0 TXD_o = 1
[620000] counter=310 clk_i=0 rst_i=0 TXD_o = 1
[622000] counter=311 clk_i=1 rst_i=0 TXD_o = 1
[624000] counter=312 clk_i=0 rst_i=0 TXD_o = 1
[626000] counter=313 clk_i=1 rst_i=0 TXD_o = 1
[628000] counter=314 clk_i=0 rst_i=0 TXD_o = 1
[630000] counter=315 clk_i=1 rst_i=0 TXD_o = 1
[632000] counter=316 clk_i=0 rst_i=0 TXD_o = 1
[634000] counter=317 clk_i=1 rst_i=0 TXD_o = 1
[636000] counter=318 clk_i=0 rst_i=0 TXD_o = 1
[638000] counter=319 clk_i=1 rst_i=0 TXD_o = 1
[640000] counter=320 clk_i=0 rst_i=0 TXD_o = 1
[642000] counter=321 clk_i=1 rst_i=0 TXD_o = 1
[644000] counter=322 clk_i=0 rst_i=0 TXD_o = 1
[646000] counter=323 clk_i=1 rst_i=0 TXD_o = 1
[648000] counter=324 clk_i=0 rst_i=0 TXD_o = 1
[650000] counter=325 clk_i=1 rst_i=0 TXD_o = 1
[652000] counter=326 clk_i=0 rst_i=0 TXD_o = 1
[654000] counter=327 clk_i=1 rst_i=0 TXD_o = 1
[656000] counter=328 clk_i=0 rst_i=0 TXD_o = 1
[658000] counter=329 clk_i=1 rst_i=0 TXD_o = 1
[660000] counter=330 clk_i=0 rst_i=0 TXD_o = 1
[662000] counter=331 clk_i=1 rst_i=0 TXD_o = 1
[664000] counter=332 clk_i=0 rst_i=0 TXD_o = 1
[666000] counter=333 clk_i=1 rst_i=0 TXD_o = 1
[668000] counter=334 clk_i=0 rst_i=0 TXD_o = 1
[670000] counter=335 clk_i=1 rst_i=0 TXD_o = 1
[672000] counter=336 clk_i=0 rst_i=0 TXD_o = 1
[674000] counter=337 clk_i=1 rst_i=0 TXD_o = 1
[676000] counter=338 clk_i=0 rst_i=0 TXD_o = 1
[678000] counter=339 clk_i=1 rst_i=0 TXD_o = 1
[680000] counter=340 clk_i=0 rst_i=0 TXD_o = 1
[682000] counter=341 clk_i=1 rst_i=0 TXD_o = 1
[684000] counter=342 clk_i=0 rst_i=0 TXD_o = 1
[686000] counter=343 clk_i=1 rst_i=0 TXD_o = 1
[688000] counter=344 clk_i=0 rst_i=0 TXD_o = 1
[690000] counter=345 clk_i=1 rst_i=0 TXD_o = 1
[692000] counter=346 clk_i=0 rst_i=0 TXD_o = 1
[694000] counter=347 clk_i=1 rst_i=0 TXD_o = 1
[696000] counter=348 clk_i=0 rst_i=0 TXD_o = 1
[698000] counter=349 clk_i=1 rst_i=0 TXD_o = 1
[700000] counter=350 clk_i=0 rst_i=0 TXD_o = 1
[702000] counter=351 clk_i=1 rst_i=0 TXD_o = 1
[704000] counter=352 clk_i=0 rst_i=0 TXD_o = 1
[706000] counter=353 clk_i=1 rst_i=0 TXD_o = 1
[708000] counter=354 clk_i=0 rst_i=0 TXD_o = 1
[710000] counter=355 clk_i=1 rst_i=0 TXD_o = 1
[712000] counter=356 clk_i=0 rst_i=0 TXD_o = 1
[714000] counter=357 clk_i=1 rst_i=0 TXD_o = 1
[716000] counter=358 clk_i=0 rst_i=0 TXD_o = 1
[718000] counter=359 clk_i=1 rst_i=0 TXD_o = 1
[720000] counter=360 clk_i=0 rst_i=0 TXD_o = 1
[722000] counter=361 clk_i=1 rst_i=0 TXD_o = 1
[724000] counter=362 clk_i=0 rst_i=0 TXD_o = 1
[726000] counter=363 clk_i=1 rst_i=0 TXD_o = 1
[728000] counter=364 clk_i=0 rst_i=0 TXD_o = 1
[730000] counter=365 clk_i=1 rst_i=0 TXD_o = 1
[732000] counter=366 clk_i=0 rst_i=0 TXD_o = 1
[734000] counter=367 clk_i=1 rst_i=0 TXD_o = 1
[736000] counter=368 clk_i=0 rst_i=0 TXD_o = 1
[738000] counter=369 clk_i=1 rst_i=0 TXD_o = 1
[740000] counter=370 clk_i=0 rst_i=0 TXD_o = 1
[742000] counter=371 clk_i=1 rst_i=0 TXD_o = 1
[744000] counter=372 clk_i=0 rst_i=0 TXD_o = 1
[746000] counter=373 clk_i=1 rst_i=0 TXD_o = 1
[748000] counter=374 clk_i=0 rst_i=0 TXD_o = 1
[750000] counter=375 clk_i=1 rst_i=0 TXD_o = 1
[752000] counter=376 clk_i=0 rst_i=0 TXD_o = 1
[754000] counter=377 clk_i=1 rst_i=0 TXD_o = 1
[756000] counter=378 clk_i=0 rst_i=0 TXD_o = 1
[758000] counter=379 clk_i=1 rst_i=0 TXD_o = 1
[760000] counter=380 clk_i=0 rst_i=0 TXD_o = 1
[762000] counter=381 clk_i=1 rst_i=0 TXD_o = 1
[764000] counter=382 clk_i=0 rst_i=0 TXD_o = 1
[766000] counter=383 clk_i=1 rst_i=0 TXD_o = 1
[768000] counter=384 clk_i=0 rst_i=0 TXD_o = 1
[770000] counter=385 clk_i=1 rst_i=0 TXD_o = 1
[772000] counter=386 clk_i=0 rst_i=0 TXD_o = 1
[774000] counter=387 clk_i=1 rst_i=0 TXD_o = 1
[776000] counter=388 clk_i=0 rst_i=0 TXD_o = 1
[778000] counter=389 clk_i=1 rst_i=0 TXD_o = 1
[780000] counter=390 clk_i=0 rst_i=0 TXD_o = 1
[782000] counter=391 clk_i=1 rst_i=0 TXD_o = 1
[784000] counter=392 clk_i=0 rst_i=0 TXD_o = 1
[786000] counter=393 clk_i=1 rst_i=0 TXD_o = 1
[788000] counter=394 clk_i=0 rst_i=0 TXD_o = 1
[790000] counter=395 clk_i=1 rst_i=0 TXD_o = 1
[792000] counter=396 clk_i=0 rst_i=0 TXD_o = 1
[794000] counter=397 clk_i=1 rst_i=0 TXD_o = 1
[796000] counter=398 clk_i=0 rst_i=0 TXD_o = 1
[798000] counter=399 clk_i=1 rst_i=0 TXD_o = 1
[800000] counter=400 clk_i=0 rst_i=0 TXD_o = 1
[802000] counter=401 clk_i=1 rst_i=0 TXD_o = 1
[804000] counter=402 clk_i=0 rst_i=0 TXD_o = 1
[806000] counter=403 clk_i=1 rst_i=0 TXD_o = 1
[808000] counter=404 clk_i=0 rst_i=0 TXD_o = 1
[810000] counter=405 clk_i=1 rst_i=0 TXD_o = 1
[812000] counter=406 clk_i=0 rst_i=0 TXD_o = 1
[814000] counter=407 clk_i=1 rst_i=0 TXD_o = 1
[816000] counter=408 clk_i=0 rst_i=0 TXD_o = 1
[818000] counter=409 clk_i=1 rst_i=0 TXD_o = 1
[820000] counter=410 clk_i=0 rst_i=0 TXD_o = 1
[822000] counter=411 clk_i=1 rst_i=0 TXD_o = 1
[824000] counter=412 clk_i=0 rst_i=0 TXD_o = 1
[826000] counter=413 clk_i=1 rst_i=0 TXD_o = 1
[828000] counter=414 clk_i=0 rst_i=0 TXD_o = 1
[830000] counter=415 clk_i=1 rst_i=0 TXD_o = 1
[832000] counter=416 clk_i=0 rst_i=0 TXD_o = 1
[834000] counter=417 clk_i=1 rst_i=0 TXD_o = 1
[836000] counter=418 clk_i=0 rst_i=0 TXD_o = 1
[838000] counter=419 clk_i=1 rst_i=0 TXD_o = 1
[840000] counter=420 clk_i=0 rst_i=0 TXD_o = 1
[842000] counter=421 clk_i=1 rst_i=0 TXD_o = 1
[844000] counter=422 clk_i=0 rst_i=0 TXD_o = 1
[846000] counter=423 clk_i=1 rst_i=0 TXD_o = 1
[848000] counter=424 clk_i=0 rst_i=0 TXD_o = 1
[850000] counter=425 clk_i=1 rst_i=0 TXD_o = 1
[852000] counter=426 clk_i=0 rst_i=0 TXD_o = 1
[854000] counter=427 clk_i=1 rst_i=0 TXD_o = 1
[856000] counter=428 clk_i=0 rst_i=0 TXD_o = 1
[858000] counter=429 clk_i=1 rst_i=0 TXD_o = 1
[860000] counter=430 clk_i=0 rst_i=0 TXD_o = 1
[862000] counter=431 clk_i=1 rst_i=0 TXD_o = 1
[864000] counter=432 clk_i=0 rst_i=0 TXD_o = 1
[866000] counter=433 clk_i=1 rst_i=0 TXD_o = 1
[868000] counter=434 clk_i=0 rst_i=0 TXD_o = 1
[870000] counter=435 clk_i=1 rst_i=0 TXD_o = 1
[872000] counter=436 clk_i=0 rst_i=0 TXD_o = 1
[874000] counter=437 clk_i=1 rst_i=0 TXD_o = 1
[876000] counter=438 clk_i=0 rst_i=0 TXD_o = 1
[878000] counter=439 clk_i=1 rst_i=0 TXD_o = 1
[880000] counter=440 clk_i=0 rst_i=0 TXD_o = 1
[882000] counter=441 clk_i=1 rst_i=0 TXD_o = 1
[884000] counter=442 clk_i=0 rst_i=0 TXD_o = 1
[886000] counter=443 clk_i=1 rst_i=0 TXD_o = 1
[888000] counter=444 clk_i=0 rst_i=0 TXD_o = 1
[890000] counter=445 clk_i=1 rst_i=0 TXD_o = 1
[892000] counter=446 clk_i=0 rst_i=0 TXD_o = 1
[894000] counter=447 clk_i=1 rst_i=0 TXD_o = 1
[896000] counter=448 clk_i=0 rst_i=0 TXD_o = 1
[898000] counter=449 clk_i=1 rst_i=0 TXD_o = 1
[900000] counter=450 clk_i=0 rst_i=0 TXD_o = 1
[902000] counter=451 clk_i=1 rst_i=0 TXD_o = 1
[904000] counter=452 clk_i=0 rst_i=0 TXD_o = 1
[906000] counter=453 clk_i=1 rst_i=0 TXD_o = 1
[908000] counter=454 clk_i=0 rst_i=0 TXD_o = 1
[910000] counter=455 clk_i=1 rst_i=0 TXD_o = 1
[912000] counter=456 clk_i=0 rst_i=0 TXD_o = 1
[914000] counter=457 clk_i=1 rst_i=0 TXD_o = 1
[916000] counter=458 clk_i=0 rst_i=0 TXD_o = 1
[918000] counter=459 clk_i=1 rst_i=0 TXD_o = 1
[920000] counter=460 clk_i=0 rst_i=0 TXD_o = 1
[922000] counter=461 clk_i=1 rst_i=0 TXD_o = 1
[924000] counter=462 clk_i=0 rst_i=0 TXD_o = 1
[926000] counter=463 clk_i=1 rst_i=0 TXD_o = 1
[928000] counter=464 clk_i=0 rst_i=0 TXD_o = 1
[930000] counter=465 clk_i=1 rst_i=0 TXD_o = 1
[932000] counter=466 clk_i=0 rst_i=0 TXD_o = 1
[934000] counter=467 clk_i=1 rst_i=0 TXD_o = 1
[936000] counter=468 clk_i=0 rst_i=0 TXD_o = 1
[938000] counter=469 clk_i=1 rst_i=0 TXD_o = 1
[940000] counter=470 clk_i=0 rst_i=0 TXD_o = 1
